<mxfile host="65bd71144e">
    <diagram id="YLvSz0Bs12TEryzquNKX" name="Page-1">
        <mxGraphModel dx="1047" dy="511" grid="1" gridSize="10" guides="1" tooltips="1" connect="1" arrows="1" fold="1" page="1" pageScale="1" pageWidth="850" pageHeight="1100" background="#FFFFFF" math="0" shadow="0">
            <root>
                <mxCell id="0"/>
                <mxCell id="1" parent="0"/>
                <mxCell id="n_YgQI5NvU09bd1-TKB0-29" value="" style="group" parent="1" vertex="1" connectable="0">
                    <mxGeometry x="160" y="320" width="120" height="250" as="geometry"/>
                </mxCell>
                <mxCell id="n_YgQI5NvU09bd1-TKB0-1" value="" style="rounded=1;whiteSpace=wrap;html=1;fillColor=#dae8fc;strokeColor=#6c8ebf;" parent="n_YgQI5NvU09bd1-TKB0-29" vertex="1">
                    <mxGeometry y="30" width="120" height="220" as="geometry"/>
                </mxCell>
                <mxCell id="n_YgQI5NvU09bd1-TKB0-8" value="" style="group" parent="n_YgQI5NvU09bd1-TKB0-29" vertex="1" connectable="0">
                    <mxGeometry x="30" y="160" width="60" height="90" as="geometry"/>
                </mxCell>
                <mxCell id="n_YgQI5NvU09bd1-TKB0-9" value="" style="group" parent="n_YgQI5NvU09bd1-TKB0-8" vertex="1" connectable="0">
                    <mxGeometry width="60" height="60" as="geometry"/>
                </mxCell>
                <mxCell id="n_YgQI5NvU09bd1-TKB0-10" value="" style="shape=cylinder3;whiteSpace=wrap;html=1;boundedLbl=1;backgroundOutline=1;size=15;" parent="n_YgQI5NvU09bd1-TKB0-9" vertex="1">
                    <mxGeometry y="20" width="60" height="40" as="geometry"/>
                </mxCell>
                <mxCell id="n_YgQI5NvU09bd1-TKB0-11" value="" style="shape=cylinder3;whiteSpace=wrap;html=1;boundedLbl=1;backgroundOutline=1;size=15;" parent="n_YgQI5NvU09bd1-TKB0-9" vertex="1">
                    <mxGeometry y="10" width="60" height="40" as="geometry"/>
                </mxCell>
                <mxCell id="n_YgQI5NvU09bd1-TKB0-12" value="" style="shape=cylinder3;whiteSpace=wrap;html=1;boundedLbl=1;backgroundOutline=1;size=15;" parent="n_YgQI5NvU09bd1-TKB0-9" vertex="1">
                    <mxGeometry width="60" height="40" as="geometry"/>
                </mxCell>
                <mxCell id="n_YgQI5NvU09bd1-TKB0-13" value="ETCD" style="text;html=1;strokeColor=none;fillColor=none;align=center;verticalAlign=middle;whiteSpace=wrap;rounded=0;" parent="n_YgQI5NvU09bd1-TKB0-8" vertex="1">
                    <mxGeometry y="60" width="60" height="30" as="geometry"/>
                </mxCell>
                <mxCell id="n_YgQI5NvU09bd1-TKB0-22" value="Composants du Control Plane" style="rounded=1;whiteSpace=wrap;html=1;" parent="n_YgQI5NvU09bd1-TKB0-29" vertex="1">
                    <mxGeometry x="10" y="40" width="100" height="30" as="geometry"/>
                </mxCell>
                <mxCell id="n_YgQI5NvU09bd1-TKB0-27" style="edgeStyle=orthogonalEdgeStyle;rounded=0;orthogonalLoop=1;jettySize=auto;html=1;exitX=0.5;exitY=1;exitDx=0;exitDy=0;startArrow=classic;startFill=1;" parent="n_YgQI5NvU09bd1-TKB0-29" source="n_YgQI5NvU09bd1-TKB0-23" target="n_YgQI5NvU09bd1-TKB0-12" edge="1">
                    <mxGeometry relative="1" as="geometry"/>
                </mxCell>
                <mxCell id="n_YgQI5NvU09bd1-TKB0-23" value="kube-api-server" style="rounded=1;whiteSpace=wrap;html=1;" parent="n_YgQI5NvU09bd1-TKB0-29" vertex="1">
                    <mxGeometry x="10" y="100" width="100" height="30" as="geometry"/>
                </mxCell>
                <mxCell id="n_YgQI5NvU09bd1-TKB0-24" style="edgeStyle=orthogonalEdgeStyle;rounded=0;orthogonalLoop=1;jettySize=auto;html=1;exitX=0.5;exitY=1;exitDx=0;exitDy=0;entryX=0.5;entryY=0;entryDx=0;entryDy=0;startArrow=classic;startFill=1;" parent="n_YgQI5NvU09bd1-TKB0-29" source="n_YgQI5NvU09bd1-TKB0-22" target="n_YgQI5NvU09bd1-TKB0-23" edge="1">
                    <mxGeometry relative="1" as="geometry"/>
                </mxCell>
                <mxCell id="n_YgQI5NvU09bd1-TKB0-28" value="Control Plane 1" style="text;html=1;strokeColor=none;fillColor=none;align=left;verticalAlign=middle;whiteSpace=wrap;rounded=0;" parent="n_YgQI5NvU09bd1-TKB0-29" vertex="1">
                    <mxGeometry width="110" height="30" as="geometry"/>
                </mxCell>
                <mxCell id="n_YgQI5NvU09bd1-TKB0-30" value="" style="group" parent="1" vertex="1" connectable="0">
                    <mxGeometry x="345" y="320" width="120" height="250" as="geometry"/>
                </mxCell>
                <mxCell id="n_YgQI5NvU09bd1-TKB0-31" value="" style="rounded=1;whiteSpace=wrap;html=1;fillColor=#dae8fc;strokeColor=#6c8ebf;" parent="n_YgQI5NvU09bd1-TKB0-30" vertex="1">
                    <mxGeometry y="30" width="120" height="220" as="geometry"/>
                </mxCell>
                <mxCell id="n_YgQI5NvU09bd1-TKB0-32" value="" style="group" parent="n_YgQI5NvU09bd1-TKB0-30" vertex="1" connectable="0">
                    <mxGeometry x="30" y="160" width="60" height="90" as="geometry"/>
                </mxCell>
                <mxCell id="n_YgQI5NvU09bd1-TKB0-33" value="" style="group" parent="n_YgQI5NvU09bd1-TKB0-32" vertex="1" connectable="0">
                    <mxGeometry width="60" height="60" as="geometry"/>
                </mxCell>
                <mxCell id="n_YgQI5NvU09bd1-TKB0-34" value="" style="shape=cylinder3;whiteSpace=wrap;html=1;boundedLbl=1;backgroundOutline=1;size=15;" parent="n_YgQI5NvU09bd1-TKB0-33" vertex="1">
                    <mxGeometry y="20" width="60" height="40" as="geometry"/>
                </mxCell>
                <mxCell id="n_YgQI5NvU09bd1-TKB0-35" value="" style="shape=cylinder3;whiteSpace=wrap;html=1;boundedLbl=1;backgroundOutline=1;size=15;" parent="n_YgQI5NvU09bd1-TKB0-33" vertex="1">
                    <mxGeometry y="10" width="60" height="40" as="geometry"/>
                </mxCell>
                <mxCell id="n_YgQI5NvU09bd1-TKB0-36" value="" style="shape=cylinder3;whiteSpace=wrap;html=1;boundedLbl=1;backgroundOutline=1;size=15;" parent="n_YgQI5NvU09bd1-TKB0-33" vertex="1">
                    <mxGeometry width="60" height="40" as="geometry"/>
                </mxCell>
                <mxCell id="n_YgQI5NvU09bd1-TKB0-37" value="ETCD" style="text;html=1;strokeColor=none;fillColor=none;align=center;verticalAlign=middle;whiteSpace=wrap;rounded=0;" parent="n_YgQI5NvU09bd1-TKB0-32" vertex="1">
                    <mxGeometry y="60" width="60" height="30" as="geometry"/>
                </mxCell>
                <mxCell id="n_YgQI5NvU09bd1-TKB0-38" value="Composants du Control Plane" style="rounded=1;whiteSpace=wrap;html=1;" parent="n_YgQI5NvU09bd1-TKB0-30" vertex="1">
                    <mxGeometry x="10" y="40" width="100" height="30" as="geometry"/>
                </mxCell>
                <mxCell id="n_YgQI5NvU09bd1-TKB0-39" style="edgeStyle=orthogonalEdgeStyle;rounded=0;orthogonalLoop=1;jettySize=auto;html=1;exitX=0.5;exitY=1;exitDx=0;exitDy=0;startArrow=classic;startFill=1;" parent="n_YgQI5NvU09bd1-TKB0-30" source="n_YgQI5NvU09bd1-TKB0-40" target="n_YgQI5NvU09bd1-TKB0-36" edge="1">
                    <mxGeometry relative="1" as="geometry"/>
                </mxCell>
                <mxCell id="n_YgQI5NvU09bd1-TKB0-40" value="kube-api-server" style="rounded=1;whiteSpace=wrap;html=1;" parent="n_YgQI5NvU09bd1-TKB0-30" vertex="1">
                    <mxGeometry x="10" y="100" width="100" height="30" as="geometry"/>
                </mxCell>
                <mxCell id="n_YgQI5NvU09bd1-TKB0-41" style="edgeStyle=orthogonalEdgeStyle;rounded=0;orthogonalLoop=1;jettySize=auto;html=1;exitX=0.5;exitY=1;exitDx=0;exitDy=0;entryX=0.5;entryY=0;entryDx=0;entryDy=0;startArrow=classic;startFill=1;" parent="n_YgQI5NvU09bd1-TKB0-30" source="n_YgQI5NvU09bd1-TKB0-38" target="n_YgQI5NvU09bd1-TKB0-40" edge="1">
                    <mxGeometry relative="1" as="geometry"/>
                </mxCell>
                <mxCell id="n_YgQI5NvU09bd1-TKB0-42" value="Control Plane 2" style="text;html=1;strokeColor=none;fillColor=none;align=left;verticalAlign=middle;whiteSpace=wrap;rounded=0;" parent="n_YgQI5NvU09bd1-TKB0-30" vertex="1">
                    <mxGeometry width="110" height="30" as="geometry"/>
                </mxCell>
                <mxCell id="n_YgQI5NvU09bd1-TKB0-43" value="" style="group" parent="1" vertex="1" connectable="0">
                    <mxGeometry x="530" y="320" width="120" height="250" as="geometry"/>
                </mxCell>
                <mxCell id="n_YgQI5NvU09bd1-TKB0-44" value="" style="rounded=1;whiteSpace=wrap;html=1;fillColor=#dae8fc;strokeColor=#6c8ebf;" parent="n_YgQI5NvU09bd1-TKB0-43" vertex="1">
                    <mxGeometry y="30" width="120" height="220" as="geometry"/>
                </mxCell>
                <mxCell id="n_YgQI5NvU09bd1-TKB0-45" value="" style="group" parent="n_YgQI5NvU09bd1-TKB0-43" vertex="1" connectable="0">
                    <mxGeometry x="30" y="160" width="60" height="90" as="geometry"/>
                </mxCell>
                <mxCell id="n_YgQI5NvU09bd1-TKB0-46" value="" style="group" parent="n_YgQI5NvU09bd1-TKB0-45" vertex="1" connectable="0">
                    <mxGeometry width="60" height="60" as="geometry"/>
                </mxCell>
                <mxCell id="n_YgQI5NvU09bd1-TKB0-47" value="" style="shape=cylinder3;whiteSpace=wrap;html=1;boundedLbl=1;backgroundOutline=1;size=15;" parent="n_YgQI5NvU09bd1-TKB0-46" vertex="1">
                    <mxGeometry y="20" width="60" height="40" as="geometry"/>
                </mxCell>
                <mxCell id="n_YgQI5NvU09bd1-TKB0-48" value="" style="shape=cylinder3;whiteSpace=wrap;html=1;boundedLbl=1;backgroundOutline=1;size=15;" parent="n_YgQI5NvU09bd1-TKB0-46" vertex="1">
                    <mxGeometry y="10" width="60" height="40" as="geometry"/>
                </mxCell>
                <mxCell id="n_YgQI5NvU09bd1-TKB0-49" value="" style="shape=cylinder3;whiteSpace=wrap;html=1;boundedLbl=1;backgroundOutline=1;size=15;" parent="n_YgQI5NvU09bd1-TKB0-46" vertex="1">
                    <mxGeometry width="60" height="40" as="geometry"/>
                </mxCell>
                <mxCell id="n_YgQI5NvU09bd1-TKB0-50" value="ETCD" style="text;html=1;strokeColor=none;fillColor=none;align=center;verticalAlign=middle;whiteSpace=wrap;rounded=0;" parent="n_YgQI5NvU09bd1-TKB0-45" vertex="1">
                    <mxGeometry y="60" width="60" height="30" as="geometry"/>
                </mxCell>
                <mxCell id="n_YgQI5NvU09bd1-TKB0-51" value="Composants du Control Plane" style="rounded=1;whiteSpace=wrap;html=1;" parent="n_YgQI5NvU09bd1-TKB0-43" vertex="1">
                    <mxGeometry x="10" y="40" width="100" height="30" as="geometry"/>
                </mxCell>
                <mxCell id="n_YgQI5NvU09bd1-TKB0-52" style="edgeStyle=orthogonalEdgeStyle;rounded=0;orthogonalLoop=1;jettySize=auto;html=1;exitX=0.5;exitY=1;exitDx=0;exitDy=0;startArrow=classic;startFill=1;" parent="n_YgQI5NvU09bd1-TKB0-43" source="n_YgQI5NvU09bd1-TKB0-53" target="n_YgQI5NvU09bd1-TKB0-49" edge="1">
                    <mxGeometry relative="1" as="geometry"/>
                </mxCell>
                <mxCell id="n_YgQI5NvU09bd1-TKB0-53" value="kube-api-server" style="rounded=1;whiteSpace=wrap;html=1;" parent="n_YgQI5NvU09bd1-TKB0-43" vertex="1">
                    <mxGeometry x="10" y="100" width="100" height="30" as="geometry"/>
                </mxCell>
                <mxCell id="n_YgQI5NvU09bd1-TKB0-54" style="edgeStyle=orthogonalEdgeStyle;rounded=0;orthogonalLoop=1;jettySize=auto;html=1;exitX=0.5;exitY=1;exitDx=0;exitDy=0;entryX=0.5;entryY=0;entryDx=0;entryDy=0;startArrow=classic;startFill=1;" parent="n_YgQI5NvU09bd1-TKB0-43" source="n_YgQI5NvU09bd1-TKB0-51" target="n_YgQI5NvU09bd1-TKB0-53" edge="1">
                    <mxGeometry relative="1" as="geometry"/>
                </mxCell>
                <mxCell id="n_YgQI5NvU09bd1-TKB0-55" value="Control Plane 3" style="text;html=1;strokeColor=none;fillColor=none;align=left;verticalAlign=middle;whiteSpace=wrap;rounded=0;" parent="n_YgQI5NvU09bd1-TKB0-43" vertex="1">
                    <mxGeometry width="110" height="30" as="geometry"/>
                </mxCell>
                <mxCell id="n_YgQI5NvU09bd1-TKB0-57" style="edgeStyle=orthogonalEdgeStyle;rounded=0;orthogonalLoop=1;jettySize=auto;html=1;exitX=1;exitY=1;exitDx=0;exitDy=-15;exitPerimeter=0;entryX=0;entryY=0;entryDx=0;entryDy=15;entryPerimeter=0;startArrow=classic;startFill=1;" parent="1" source="n_YgQI5NvU09bd1-TKB0-11" target="n_YgQI5NvU09bd1-TKB0-34" edge="1">
                    <mxGeometry relative="1" as="geometry"/>
                </mxCell>
                <mxCell id="n_YgQI5NvU09bd1-TKB0-58" style="edgeStyle=orthogonalEdgeStyle;rounded=0;orthogonalLoop=1;jettySize=auto;html=1;exitX=1;exitY=0;exitDx=0;exitDy=15;exitPerimeter=0;entryX=0;entryY=1;entryDx=0;entryDy=-15;entryPerimeter=0;startArrow=classic;startFill=1;" parent="1" source="n_YgQI5NvU09bd1-TKB0-34" target="n_YgQI5NvU09bd1-TKB0-48" edge="1">
                    <mxGeometry relative="1" as="geometry"/>
                </mxCell>
                <mxCell id="n_YgQI5NvU09bd1-TKB0-59" style="edgeStyle=orthogonalEdgeStyle;rounded=0;orthogonalLoop=1;jettySize=auto;html=1;exitX=0.855;exitY=1;exitDx=0;exitDy=-4.35;exitPerimeter=0;entryX=0.145;entryY=1;entryDx=0;entryDy=-4.35;entryPerimeter=0;startArrow=classic;startFill=1;" parent="1" source="n_YgQI5NvU09bd1-TKB0-10" target="n_YgQI5NvU09bd1-TKB0-47" edge="1">
                    <mxGeometry relative="1" as="geometry">
                        <Array as="points">
                            <mxPoint x="241" y="600"/>
                            <mxPoint x="569" y="600"/>
                        </Array>
                    </mxGeometry>
                </mxCell>
            </root>
        </mxGraphModel>
    </diagram>
</mxfile>